datavyu R package update
…
We can see how using milliseconds increases the number of data points:

```r
prepared_time_series_ms <- 
  prep_time_series(column = "LogClass_AS_ActivityFormat",
                                            specified_file = "MM T102 14-02-17 Content Log",
                                            directory = "ex-data/datavyu_output_07-06-2020_14-46",
                                            units = "ms") # takes around .8s to run

prepared_time_series_ms
```

```
## # A tibble: 4,825,743 x 2
##        ts code 
##  *  <int> <chr>
##  1 235026 aw   
##  2 235027 aw   
##  3 235028 aw   
##  4 235029 aw   
##  5 235030 aw   
##  6 235031 aw   
##  7 235032 aw   
##  8 235033 aw   
##  9 235034 aw   
## 10 235035 aw   
## # … with 4,825,733 more rows
```
…
