Prepare and Create Output from datavyu Coding Files • datavyu
…
Time series preparation and plot (in-development)

To visualize frequency of a certain coded datavyu column accounting for the duration of the video, we can use the function plot_time_series(). First we must prepare the data via saving the prep_time_series() function as an object (here we use prepared_time_series).

Note that the available files can be found using datavyur::datavyu_col_search() (described above):

prepared_time_series <- prep_time_series(column = "childhands",
                                         code = "childhands.hand",
                                         specified_file = "dyad1")

prepared_time_series
#> # A tibble: 1,823 x 2
#>       ts code 
#>  * <dbl> <chr>
#>  1    29 left 
#>  2    30 left 
#>  3    31 left 
#>  4    32 left 
#>  5    33 left 
#>  6    34 left 
#>  7    35 left 
#>  8    36 left 
#>  9    37 left 
#> 10    38 left 
#> # … with 1,813 more rows

The units argument defaults to “s” (seconds), but can be changed to “m” (rounds the data to minutes) or “ms” (retains datavyu’s default units, milliseconds).

We can see how using milliseconds increases the number of data points:

prepared_time_series_ms <- prep_time_series(column = "childhands",
                                            code = "childhands.hand",
                                            specified_file = "dyad1",
                                            units = "ms")

prepared_time_series_ms
#> # A tibble: 1,772,038 x 2
#>       ts code 
#>  * <int> <chr>
#>  1 28846 left 
#>  2 28847 left 
#>  3 28848 left 
#>  4 28849 left 
#>  5 28850 left 
#>  6 28851 left 
#>  7 28852 left 
#>  8 28853 left 
#>  9 28854 left 
#> 10 28855 left 
#> # … with 1,772,028 more rows
…
