Calculating Interrater Agreement • datavyu
…
Agreement statistics

First, looking at data:

prepared_time_series_tm
#> # A tibble: 4,880 x 2
#>       ts code 
#>  * <dbl> <chr>
#>  1     0 ni   
#>  2     1 ni   
#>  3     2 ni   
#>  4     3 ni   
#>  5     4 ni   
#>  6     5 ni   
#>  7     6 ni   
#>  8     7 ni   
#>  9     8 ni   
#> 10     9 ni   
#> # … with 4,870 more rows
prepared_time_series_hh
#> # A tibble: 4,880 x 2
#>       ts code 
#>  * <dbl> <chr>
#>  1     0 ni   
#>  2     1 ni   
#>  3     2 ni   
#>  4     3 ni   
#>  5     4 ni   
#>  6     5 ni   
#>  7     6 ni   
#>  8     7 ni   
#>  9     8 ni   
#> 10     9 ni   
#> # … with 4,870 more rows

We’ll do a “full” join, re] taining all time stamps for both files. First, we must rename one (or both) of the two code columns. Having done this, we can easily compare the two once joined:

prepared_time_series_tm <- rename(prepared_time_series_tm, code_tm = code)
prepared_time_series_hh <- rename(prepared_time_series_hh, code_hh = code)

joined_data <- prepared_time_series_tm %>%
  full_join(prepared_time_series_hh, by = "ts")

joined_data
#> # A tibble: 4,886 x 3
#>       ts code_tm code_hh
#>    <dbl> <chr>   <chr>  
#>  1     0 ni      ni     
#>  2     1 ni      ni     
#>  3     2 ni      ni     
#>  4     3 ni      ni     
#>  5     4 ni      ni     
#>  6     5 ni      ni     
#>  7     6 ni      ni     
#>  8     7 ni      ni     
#>  9     8 ni      ni     
#> 10     9 ni      ni     
#> # … with 4,876 more rows
…
